EESchema Schematic File Version 4
LIBS:LED_PCB-cache
EELAYER 26 0
EELAYER END
$Descr A4 11693 8268
encoding utf-8
Sheet 1 1
Title ""
Date ""
Rev ""
Comp ""
Comment1 ""
Comment2 ""
Comment3 ""
Comment4 ""
$EndDescr
$Comp
L LED_PCB-rescue:CD74HC04M-CD74HC04M IC2
U 1 1 5BB913C3
P 8000 1250
F 0 "IC2" H 8500 1515 50  0000 C CNN
F 1 "CD74HC04M" H 8500 1424 50  0000 C CNN
F 2 "CD74HC04M:SOIC127P600X175-14N" H 8850 1350 50  0001 L CNN
F 3 "http://docs-europe.electrocomponents.com/webdocs/0b75/0900766b80b75038.pdf" H 8850 1250 50  0001 L CNN
F 4 "CD74HC04M, Hex Inverter 5.2mA 2 to 6V 14-Pin SOIC" H 8850 1150 50  0001 L CNN "Description"
F 5 "1.75" H 8850 1050 50  0001 L CNN "Height"
F 6 "Texas Instruments" H 8850 950 50  0001 L CNN "Manufacturer_Name"
F 7 "CD74HC04M" H 8850 850 50  0001 L CNN "Manufacturer_Part_Number"
F 8 "0527766" H 8850 750 50  0001 L CNN "RS Part Number"
F 9 "http://uk.rs-online.com/web/p/products/0527766" H 8850 650 50  0001 L CNN "RS Price/Stock"
F 10 "CD74HC04M" H 8850 550 50  0001 L CNN "Arrow Part Number"
F 11 "https://www.arrow.com/en/products/cd74hc04m/texas-instruments" H 8850 450 50  0001 L CNN "Arrow Price/Stock"
	1    8000 1250
	1    0    0    -1  
$EndComp
$Comp
L Device:R_Small R1
U 1 1 5BB9193C
P 3900 2000
F 0 "R1" H 3959 2046 50  0000 L CNN
F 1 "1k2" H 3959 1955 50  0000 L CNN
F 2 "Resistor_SMD:R_1206_3216Metric" H 3900 2000 50  0001 C CNN
F 3 "~" H 3900 2000 50  0001 C CNN
	1    3900 2000
	1    0    0    -1  
$EndComp
$Comp
L Device:R_Small R2
U 1 1 5BB91988
P 3900 2300
F 0 "R2" H 3959 2346 50  0000 L CNN
F 1 "270R" H 3959 2255 50  0000 L CNN
F 2 "Resistor_SMD:R_1206_3216Metric" H 3900 2300 50  0001 C CNN
F 3 "~" H 3900 2300 50  0001 C CNN
	1    3900 2300
	1    0    0    -1  
$EndComp
Text GLabel 3750 2200 3    50   Output ~ 0
INPUT_1_5v
Text GLabel 3900 1800 1    50   Input ~ 0
INPUT_1_24v
Wire Wire Line
	3900 1800 3900 1900
Wire Wire Line
	3900 2100 3900 2150
Wire Wire Line
	3900 2400 3900 2500
Wire Wire Line
	3750 2200 3750 2150
Wire Wire Line
	3750 2150 3900 2150
Connection ~ 3900 2150
Wire Wire Line
	3900 2150 3900 2200
$Comp
L Device:R_Small R3
U 1 1 5BB91DA8
P 4350 2000
F 0 "R3" H 4409 2046 50  0000 L CNN
F 1 "1k2" H 4409 1955 50  0000 L CNN
F 2 "Resistor_SMD:R_1206_3216Metric" H 4350 2000 50  0001 C CNN
F 3 "~" H 4350 2000 50  0001 C CNN
	1    4350 2000
	1    0    0    -1  
$EndComp
$Comp
L Device:R_Small R4
U 1 1 5BB91DAF
P 4350 2300
F 0 "R4" H 4409 2346 50  0000 L CNN
F 1 "270R" H 4409 2255 50  0000 L CNN
F 2 "Resistor_SMD:R_1206_3216Metric" H 4350 2300 50  0001 C CNN
F 3 "~" H 4350 2300 50  0001 C CNN
	1    4350 2300
	1    0    0    -1  
$EndComp
Text GLabel 4200 2200 3    50   Output ~ 0
INPUT_2_5v
Text GLabel 4350 1800 1    50   Input ~ 0
INPUT_2_24v
Wire Wire Line
	4350 1800 4350 1900
Wire Wire Line
	4350 2100 4350 2150
Wire Wire Line
	4350 2400 4350 2500
Wire Wire Line
	4200 2200 4200 2150
Wire Wire Line
	4200 2150 4350 2150
Connection ~ 4350 2150
Wire Wire Line
	4350 2150 4350 2200
$Comp
L Device:R_Small R5
U 1 1 5BB91F98
P 4800 2000
F 0 "R5" H 4859 2046 50  0000 L CNN
F 1 "1k2" H 4859 1955 50  0000 L CNN
F 2 "Resistor_SMD:R_1206_3216Metric" H 4800 2000 50  0001 C CNN
F 3 "~" H 4800 2000 50  0001 C CNN
	1    4800 2000
	1    0    0    -1  
$EndComp
$Comp
L Device:R_Small R6
U 1 1 5BB91F9F
P 4800 2300
F 0 "R6" H 4859 2346 50  0000 L CNN
F 1 "270R" H 4859 2255 50  0000 L CNN
F 2 "Resistor_SMD:R_1206_3216Metric" H 4800 2300 50  0001 C CNN
F 3 "~" H 4800 2300 50  0001 C CNN
	1    4800 2300
	1    0    0    -1  
$EndComp
Text GLabel 4650 2200 3    50   Output ~ 0
INPUT_3_5v
Text GLabel 4800 1800 1    50   Input ~ 0
INPUT_3_24v
Wire Wire Line
	4800 1800 4800 1900
Wire Wire Line
	4800 2100 4800 2150
Wire Wire Line
	4800 2400 4800 2500
Wire Wire Line
	4650 2200 4650 2150
Wire Wire Line
	4650 2150 4800 2150
Connection ~ 4800 2150
Wire Wire Line
	4800 2150 4800 2200
$Comp
L Device:R_Small R7
U 1 1 5BB9229F
P 5250 2000
F 0 "R7" H 5309 2046 50  0000 L CNN
F 1 "1k2" H 5309 1955 50  0000 L CNN
F 2 "Resistor_SMD:R_1206_3216Metric" H 5250 2000 50  0001 C CNN
F 3 "~" H 5250 2000 50  0001 C CNN
	1    5250 2000
	1    0    0    -1  
$EndComp
$Comp
L Device:R_Small R8
U 1 1 5BB922A6
P 5250 2300
F 0 "R8" H 5309 2346 50  0000 L CNN
F 1 "270R" H 5309 2255 50  0000 L CNN
F 2 "Resistor_SMD:R_1206_3216Metric" H 5250 2300 50  0001 C CNN
F 3 "~" H 5250 2300 50  0001 C CNN
	1    5250 2300
	1    0    0    -1  
$EndComp
Text GLabel 5100 2200 3    50   Output ~ 0
INPUT_4_5v
Text GLabel 5250 1800 1    50   Input ~ 0
INPUT_4_24v
Wire Wire Line
	5250 1800 5250 1900
Wire Wire Line
	5250 2100 5250 2150
Wire Wire Line
	5250 2400 5250 2500
Wire Wire Line
	5100 2200 5100 2150
Wire Wire Line
	5100 2150 5250 2150
Connection ~ 5250 2150
Wire Wire Line
	5250 2150 5250 2200
Text GLabel 7850 1250 0    50   Input ~ 0
INPUT_1_5v
Text GLabel 7850 1450 0    50   Input ~ 0
INPUT_2_5v
Text GLabel 7850 1650 0    50   Input ~ 0
INPUT_3_5v
Text GLabel 9150 1750 2    50   Input ~ 0
INPUT_4_5v
Wire Wire Line
	7850 1250 8000 1250
Wire Wire Line
	7850 1450 8000 1450
Wire Wire Line
	7850 1650 8000 1650
Wire Wire Line
	9150 1750 9000 1750
Wire Wire Line
	9000 1250 9050 1250
Wire Wire Line
	7850 1850 8000 1850
Text GLabel 7100 1350 0    50   Output ~ 0
OUTPUT_1_5v_inv
Text GLabel 7100 1550 0    50   Output ~ 0
OUTPUT_2_5v_inv
Text GLabel 7100 1750 0    50   Output ~ 0
OUTPUT_3_5v_inv
Text GLabel 9900 1850 2    50   Output ~ 0
OUTPUT_4_5v_inv
Wire Notes Line
	3150 500  3150 5700
Wire Notes Line
	5900 3200 5900 500 
Wire Notes Line
	500  3200 11150 3200
Text Notes 7300 4150 0    118  ~ 0
Power Supply
Text Notes 8000 800  0    118  ~ 0
Logic\n
Text Notes 4000 850  0    118  ~ 0
Voltage Dividers
Text Notes 1100 800  0    118  ~ 0
Input Connector
Text Notes 1150 3500 0    118  ~ 0
Output Connectors
$Comp
L LED_PCB-rescue:ULN2803ADWRG4-ULN2803ADWRG4 T1
U 1 1 5BBA2D1D
P 4250 4200
F 0 "T1" H 4750 4465 50  0000 C CNN
F 1 "ULN2803ADWRG4" H 4750 4374 50  0000 C CNN
F 2 "ULN2803ADWRG4:SOIC127P1030X265-18N" H 5100 4300 50  0001 L CNN
F 3 "https://www.arrow.com/en/products/uln2803adwrg4/texas-instruments" H 5100 4200 50  0001 L CNN
F 4 "Darlington Transistors TRANSISTOR ARRAYS" H 5100 4100 50  0001 L CNN "Description"
F 5 "2.65" H 5100 4000 50  0001 L CNN "Height"
F 6 "ULN2803ADWRG4" H 5100 3900 50  0001 L CNN "Arrow Part Number"
F 7 "Texas Instruments" H 5100 3800 50  0001 L CNN "Manufacturer_Name"
F 8 "ULN2803ADWRG4" H 5100 3700 50  0001 L CNN "Manufacturer_Part_Number"
	1    4250 4200
	1    0    0    -1  
$EndComp
Text GLabel 7600 2400 0    50   Input ~ 0
OUTPUT_1_5v_inv
$Comp
L Device:R_Small R9
U 1 1 5BBA2E36
P 5550 4500
F 0 "R9" V 5600 4250 50  0000 L CNN
F 1 "150R" V 5600 4450 50  0000 L CNN
F 2 "Resistor_SMD:R_1206_3216Metric" H 5550 4500 50  0001 C CNN
F 3 "~" H 5550 4500 50  0001 C CNN
	1    5550 4500
	0    1    1    0   
$EndComp
$Comp
L Device:R_Small R10
U 1 1 5BBA2EB8
P 5550 4400
F 0 "R10" V 5600 4150 50  0000 L CNN
F 1 "150R" V 5600 4350 50  0000 L CNN
F 2 "Resistor_SMD:R_1206_3216Metric" H 5550 4400 50  0001 C CNN
F 3 "~" H 5550 4400 50  0001 C CNN
	1    5550 4400
	0    1    1    0   
$EndComp
$Comp
L Device:R_Small R11
U 1 1 5BBA2F1E
P 5550 4300
F 0 "R11" V 5600 4050 50  0000 L CNN
F 1 "150R" V 5600 4250 50  0000 L CNN
F 2 "Resistor_SMD:R_1206_3216Metric" H 5550 4300 50  0001 C CNN
F 3 "~" H 5550 4300 50  0001 C CNN
	1    5550 4300
	0    1    1    0   
$EndComp
$Comp
L Device:R_Small R12
U 1 1 5BBA2F9C
P 5550 4200
F 0 "R12" V 5600 3950 50  0000 L CNN
F 1 "150R" V 5600 4150 50  0000 L CNN
F 2 "Resistor_SMD:R_1206_3216Metric" H 5550 4200 50  0001 C CNN
F 3 "~" H 5550 4200 50  0001 C CNN
	1    5550 4200
	0    1    1    0   
$EndComp
Wire Wire Line
	9000 1850 9900 1850
Wire Wire Line
	7100 1350 8000 1350
Wire Wire Line
	7100 1550 8000 1550
Wire Wire Line
	7100 1750 8000 1750
Text GLabel 7600 2700 0    50   Input ~ 0
OUTPUT_2_5v_inv
Text GLabel 9600 2600 2    50   Input ~ 0
OUTPUT_3_5v_inv
Text GLabel 9600 2900 2    50   Input ~ 0
OUTPUT_4_5v_inv
Wire Wire Line
	4100 4500 4250 4500
Wire Wire Line
	4100 4400 4250 4400
Wire Wire Line
	4100 4300 4250 4300
Wire Wire Line
	4100 4200 4250 4200
Wire Wire Line
	5250 4200 5450 4200
Wire Wire Line
	5250 4300 5450 4300
Wire Wire Line
	5250 4400 5450 4400
Wire Wire Line
	5450 4500 5250 4500
Text GLabel 5750 4500 2    50   Output ~ 0
LED_1_5V_inv
Text GLabel 5750 4400 2    50   Output ~ 0
LED_2_5V_inv
Text GLabel 5750 4300 2    50   Output ~ 0
LED_3_5V_inv
Text GLabel 5750 4200 2    50   Output ~ 0
LED_4_5V_inv
Wire Wire Line
	5650 4500 5750 4500
Wire Wire Line
	5650 4400 5750 4400
Wire Wire Line
	5650 4300 5750 4300
Wire Wire Line
	5650 4200 5750 4200
Text GLabel 1550 4550 0    50   Input ~ 0
LED_1_5V_inv
Text GLabel 1550 4350 0    50   Input ~ 0
LED_2_5V_inv
Text GLabel 1550 4150 0    50   Input ~ 0
LED_3_5V_inv
Text GLabel 1550 3950 0    50   Input ~ 0
LED_4_5V_inv
Wire Notes Line
	6400 7800 6400 3200
Text Notes 3950 3600 0    118  ~ 0
Output Driver
Wire Notes Line
	500  5700 6400 5700
$Comp
L Device:R_Small R13
U 1 1 5BBA4C72
P 10050 5300
F 0 "R13" H 10109 5346 50  0000 L CNN
F 1 "150R" H 10109 5255 50  0000 L CNN
F 2 "Resistor_SMD:R_1206_3216Metric" H 10050 5300 50  0001 C CNN
F 3 "~" H 10050 5300 50  0001 C CNN
	1    10050 5300
	-1   0    0    1   
$EndComp
Wire Wire Line
	10050 4400 10050 4550
Wire Wire Line
	10050 5150 10050 5200
Wire Wire Line
	10050 5400 10050 5550
Wire Wire Line
	7600 4600 7750 4600
Wire Wire Line
	7600 4700 7750 4700
Wire Wire Line
	9100 4500 8950 4500
Wire Wire Line
	9100 4700 8950 4700
$Comp
L LED_PCB-rescue:LOGO-cure_logo #G1
U 1 1 5BBB9312
P 7400 6800
F 0 "#G1" H 7400 6476 60  0001 C CNN
F 1 "LOGO" H 7400 7124 60  0001 C CNN
F 2 "" H 7400 6800 50  0001 C CNN
F 3 "" H 7400 6800 50  0001 C CNN
	1    7400 6800
	1    0    0    -1  
$EndComp
$Comp
L LED_PCB-rescue:SN74LV32ADR-SN74LV32ADR IC3
U 1 1 5BBAF88B
P 8000 2400
F 0 "IC3" H 8500 2665 50  0000 C CNN
F 1 "SN74LV32ADR" H 8500 2574 50  0000 C CNN
F 2 "SN74LV32ADR:SOIC127P600X175-14N" H 8850 2500 50  0001 L CNN
F 3 "http://www.ti.com/lit/ds/symlink/sn74lv32a.pdf" H 8850 2400 50  0001 L CNN
F 4 "Texas Instruments SN74LV32ADR, OR Quad 2 Input OR, 2  5.5 V, 14-Pin SOIC" H 8850 2300 50  0001 L CNN "Description"
F 5 "1.75" H 8850 2200 50  0001 L CNN "Height"
F 6 "Texas Instruments" H 8850 2100 50  0001 L CNN "Manufacturer_Name"
F 7 "SN74LV32ADR" H 8850 2000 50  0001 L CNN "Manufacturer_Part_Number"
F 8 "6628503P" H 8850 1900 50  0001 L CNN "RS Part Number"
F 9 "http://uk.rs-online.com/web/p/products/6628503P" H 8850 1800 50  0001 L CNN "RS Price/Stock"
F 10 "SN74LV32ADR" H 8850 1700 50  0001 L CNN "Arrow Part Number"
F 11 "https://www.arrow.com/en/products/sn74lv32adr/texas-instruments" H 8850 1600 50  0001 L CNN "Arrow Price/Stock"
	1    8000 2400
	1    0    0    -1  
$EndComp
Wire Wire Line
	7600 2400 8000 2400
Wire Wire Line
	7600 2700 8000 2700
Wire Wire Line
	9600 2600 9000 2600
Wire Wire Line
	9600 2900 9000 2900
Text GLabel 7950 2800 0    50   Output ~ 0
INPUT_2_Micro
Wire Wire Line
	7950 2800 8000 2800
Text GLabel 9050 2500 2    50   Output ~ 0
INPUT_3_Micro
Wire Wire Line
	9050 2500 9000 2500
Text GLabel 7950 2500 0    50   Output ~ 0
INPUT_1_Micro
Wire Wire Line
	8000 2500 7950 2500
Text GLabel 9050 2800 2    50   Output ~ 0
INPUT_4_Micro
Wire Wire Line
	9050 2800 9000 2800
Wire Wire Line
	7900 3000 8000 3000
Wire Wire Line
	9150 2400 9050 2400
Wire Wire Line
	9050 1250 9050 1000
Wire Wire Line
	9050 1000 10700 1000
Wire Wire Line
	10700 1000 10700 1300
Connection ~ 9050 1250
Wire Wire Line
	9050 1250 9150 1250
Wire Wire Line
	9050 2400 9050 2150
Wire Wire Line
	9050 2150 10700 2150
Wire Wire Line
	10700 2150 10700 2450
Connection ~ 9050 2400
Wire Wire Line
	9050 2400 9000 2400
Text GLabel 7600 2900 0    50   Input ~ 0
OUTPUT_2_5v_inv_OR
Text GLabel 7600 2600 0    50   Input ~ 0
OUTPUT_1_5v_inv_OR
Text GLabel 9600 2700 2    50   Input ~ 0
OUTPUT_3_5v_inv_OR
Text GLabel 9600 3000 2    50   Input ~ 0
OUTPUT_4_5v_inv_OR
Wire Wire Line
	9600 3000 9000 3000
Wire Wire Line
	9600 2700 9000 2700
Wire Wire Line
	7600 2600 8000 2600
Wire Wire Line
	7600 2900 8000 2900
Text GLabel 4100 4200 0    50   Input ~ 0
OUTPUT_4_5v_inv_OR
Text GLabel 4100 4300 0    50   Input ~ 0
OUTPUT_3_5v_inv_OR
Text GLabel 4100 4400 0    50   Input ~ 0
OUTPUT_2_5v_inv_OR
Text GLabel 4100 4500 0    50   Input ~ 0
OUTPUT_1_5v_inv_OR
Wire Wire Line
	9100 4600 8950 4600
$Comp
L L78L05ACD13TR:L78L05ACD13TR IC1
U 1 1 5BF7B566
P 7750 4500
F 0 "IC1" H 8350 4765 50  0000 C CNN
F 1 "L78L05ACD13TR" H 8350 4674 50  0000 C CNN
F 2 "L78L05ACD13TR:SOIC127P600X175-8N" H 8800 4600 50  0001 L CNN
F 3 "http://componentsearchengine.com/Datasheets/1/L78L05ACD13TR.pdf" H 8800 4500 50  0001 L CNN
F 4 "Voltage Regulator 5V 0.1A SOIC8 L78L05ACD13TR, Voltage Regulator, 0.1A 5 V, 5%, 8-Pin, SOIC" H 8800 4400 50  0001 L CNN "Description"
F 5 "1.75" H 8800 4300 50  0001 L CNN "Height"
F 6 "STMicroelectronics" H 8800 4200 50  0001 L CNN "Manufacturer_Name"
F 7 "L78L05ACD13TR" H 8800 4100 50  0001 L CNN "Manufacturer_Part_Number"
F 8 "1459425" H 8800 4000 50  0001 L CNN "RS Part Number"
F 9 "http://uk.rs-online.com/web/p/products/1459425" H 8800 3900 50  0001 L CNN "RS Price/Stock"
F 10 "70390077" H 8800 3800 50  0001 L CNN "Allied_Number"
F 11 "http://www.alliedelec.com/stmicroelectronics-l78l05acd13tr/70390077/" H 8800 3700 50  0001 L CNN "Allied Price/Stock"
F 12 "L78L05ACD13TR" H 8800 3600 50  0001 L CNN "Arrow Part Number"
F 13 "https://www.arrow.com/en/products/l78l05acd13tr/stmicroelectronics" H 8800 3500 50  0001 L CNN "Arrow Price/Stock"
	1    7750 4500
	1    0    0    -1  
$EndComp
Wire Wire Line
	7600 4500 7750 4500
$Comp
L Device:C_Small C2
U 1 1 5C13C7E7
P 10700 1400
F 0 "C2" H 10792 1446 50  0000 L CNN
F 1 "0.1u" H 10792 1355 50  0000 L CNN
F 2 "Capacitor_SMD:C_1206_3216Metric" H 10700 1400 50  0001 C CNN
F 3 "~" H 10700 1400 50  0001 C CNN
	1    10700 1400
	1    0    0    -1  
$EndComp
$Comp
L Device:C_Small C3
U 1 1 5C13C881
P 10700 2550
F 0 "C3" H 10792 2596 50  0000 L CNN
F 1 "0.1u" H 10792 2505 50  0000 L CNN
F 2 "Capacitor_SMD:C_1206_3216Metric" H 10700 2550 50  0001 C CNN
F 3 "~" H 10700 2550 50  0001 C CNN
	1    10700 2550
	1    0    0    -1  
$EndComp
$Comp
L Device:C_Small C1
U 1 1 5C13CB0A
P 6700 5000
F 0 "C1" H 6792 5046 50  0000 L CNN
F 1 "1u" H 6792 4955 50  0000 L CNN
F 2 "Capacitor_SMD:C_1206_3216Metric" H 6700 5000 50  0001 C CNN
F 3 "~" H 6700 5000 50  0001 C CNN
	1    6700 5000
	1    0    0    -1  
$EndComp
Wire Wire Line
	10700 1500 10700 1850
Wire Wire Line
	10700 2650 10700 3000
$Comp
L Connector:DB9_Male J1
U 1 1 5C146B30
P 1950 4150
F 0 "J1" H 2130 4196 50  0000 L CNN
F 1 "DB9_Male" H 2130 4105 50  0000 L CNN
F 2 "" H 1950 4150 50  0001 C CNN
F 3 " ~" H 1950 4150 50  0001 C CNN
	1    1950 4150
	1    0    0    -1  
$EndComp
$Comp
L power:+5V #PWR0101
U 1 1 5C14EC28
P 5350 5000
F 0 "#PWR0101" H 5350 4850 50  0001 C CNN
F 1 "+5V" V 5365 5128 50  0000 L CNN
F 2 "" H 5350 5000 50  0001 C CNN
F 3 "" H 5350 5000 50  0001 C CNN
	1    5350 5000
	0    1    1    0   
$EndComp
Wire Wire Line
	1550 3950 1650 3950
Wire Wire Line
	1550 4150 1650 4150
Wire Wire Line
	1550 4350 1650 4350
Wire Wire Line
	1550 4550 1650 4550
$Comp
L power:+5V #PWR0102
U 1 1 5C16362C
P 1600 4450
F 0 "#PWR0102" H 1600 4300 50  0001 C CNN
F 1 "+5V" V 1615 4578 50  0000 L CNN
F 2 "" H 1600 4450 50  0001 C CNN
F 3 "" H 1600 4450 50  0001 C CNN
	1    1600 4450
	0    -1   -1   0   
$EndComp
$Comp
L power:+5V #PWR0103
U 1 1 5C1636AA
P 1600 4250
F 0 "#PWR0103" H 1600 4100 50  0001 C CNN
F 1 "+5V" V 1615 4378 50  0000 L CNN
F 2 "" H 1600 4250 50  0001 C CNN
F 3 "" H 1600 4250 50  0001 C CNN
	1    1600 4250
	0    -1   -1   0   
$EndComp
$Comp
L power:+5V #PWR0104
U 1 1 5C1636E3
P 1600 4050
F 0 "#PWR0104" H 1600 3900 50  0001 C CNN
F 1 "+5V" V 1615 4178 50  0000 L CNN
F 2 "" H 1600 4050 50  0001 C CNN
F 3 "" H 1600 4050 50  0001 C CNN
	1    1600 4050
	0    -1   -1   0   
$EndComp
$Comp
L power:+5V #PWR0105
U 1 1 5C16371C
P 1600 3850
F 0 "#PWR0105" H 1600 3700 50  0001 C CNN
F 1 "+5V" V 1615 3978 50  0000 L CNN
F 2 "" H 1600 3850 50  0001 C CNN
F 3 "" H 1600 3850 50  0001 C CNN
	1    1600 3850
	0    -1   -1   0   
$EndComp
Wire Wire Line
	1600 3850 1650 3850
Wire Wire Line
	1600 4050 1650 4050
Wire Wire Line
	1600 4250 1650 4250
Wire Wire Line
	1600 4450 1650 4450
$Comp
L power:+5V #PWR0106
U 1 1 5C17429C
P 7600 4500
F 0 "#PWR0106" H 7600 4350 50  0001 C CNN
F 1 "+5V" V 7615 4628 50  0000 L CNN
F 2 "" H 7600 4500 50  0001 C CNN
F 3 "" H 7600 4500 50  0001 C CNN
	1    7600 4500
	0    -1   -1   0   
$EndComp
$Comp
L power:+24V #PWR0107
U 1 1 5C17468E
P 6700 4900
F 0 "#PWR0107" H 6700 4750 50  0001 C CNN
F 1 "+24V" H 6715 5073 50  0000 C CNN
F 2 "" H 6700 4900 50  0001 C CNN
F 3 "" H 6700 4900 50  0001 C CNN
	1    6700 4900
	1    0    0    -1  
$EndComp
$Comp
L power:+5V #PWR0108
U 1 1 5C174B85
P 10050 4400
F 0 "#PWR0108" H 10050 4250 50  0001 C CNN
F 1 "+5V" H 10065 4573 50  0000 C CNN
F 2 "" H 10050 4400 50  0001 C CNN
F 3 "" H 10050 4400 50  0001 C CNN
	1    10050 4400
	1    0    0    -1  
$EndComp
$Comp
L power:+5V #PWR0109
U 1 1 5C175544
P 9150 2400
F 0 "#PWR0109" H 9150 2250 50  0001 C CNN
F 1 "+5V" V 9165 2528 50  0000 L CNN
F 2 "" H 9150 2400 50  0001 C CNN
F 3 "" H 9150 2400 50  0001 C CNN
	1    9150 2400
	0    1    1    0   
$EndComp
$Comp
L power:+5V #PWR0110
U 1 1 5C1758FE
P 9150 1250
F 0 "#PWR0110" H 9150 1100 50  0001 C CNN
F 1 "+5V" V 9165 1378 50  0000 L CNN
F 2 "" H 9150 1250 50  0001 C CNN
F 3 "" H 9150 1250 50  0001 C CNN
	1    9150 1250
	0    1    1    0   
$EndComp
$Comp
L power:GND #PWR0111
U 1 1 5C17A2F4
P 4150 5000
F 0 "#PWR0111" H 4150 4750 50  0001 C CNN
F 1 "GND" V 4155 4872 50  0000 R CNN
F 2 "" H 4150 5000 50  0001 C CNN
F 3 "" H 4150 5000 50  0001 C CNN
	1    4150 5000
	0    1    1    0   
$EndComp
$Comp
L power:GND #PWR0112
U 1 1 5C17A517
P 6700 5100
F 0 "#PWR0112" H 6700 4850 50  0001 C CNN
F 1 "GND" H 6705 4927 50  0000 C CNN
F 2 "" H 6700 5100 50  0001 C CNN
F 3 "" H 6700 5100 50  0001 C CNN
	1    6700 5100
	1    0    0    -1  
$EndComp
$Comp
L power:GND #PWR0113
U 1 1 5C17A5AC
P 7600 4600
F 0 "#PWR0113" H 7600 4350 50  0001 C CNN
F 1 "GND" V 7605 4472 50  0000 R CNN
F 2 "" H 7600 4600 50  0001 C CNN
F 3 "" H 7600 4600 50  0001 C CNN
	1    7600 4600
	0    1    1    0   
$EndComp
$Comp
L power:GND #PWR0114
U 1 1 5C17A5FC
P 7600 4700
F 0 "#PWR0114" H 7600 4450 50  0001 C CNN
F 1 "GND" V 7605 4572 50  0000 R CNN
F 2 "" H 7600 4700 50  0001 C CNN
F 3 "" H 7600 4700 50  0001 C CNN
	1    7600 4700
	0    1    1    0   
$EndComp
$Comp
L power:+24V #PWR0115
U 1 1 5C174883
P 9100 4500
F 0 "#PWR0115" H 9100 4350 50  0001 C CNN
F 1 "+24V" V 9115 4628 50  0000 L CNN
F 2 "" H 9100 4500 50  0001 C CNN
F 3 "" H 9100 4500 50  0001 C CNN
	1    9100 4500
	0    1    1    0   
$EndComp
$Comp
L power:GND #PWR0116
U 1 1 5C181328
P 9100 4700
F 0 "#PWR0116" H 9100 4450 50  0001 C CNN
F 1 "GND" V 9105 4572 50  0000 R CNN
F 2 "" H 9100 4700 50  0001 C CNN
F 3 "" H 9100 4700 50  0001 C CNN
	1    9100 4700
	0    -1   -1   0   
$EndComp
$Comp
L power:GND #PWR0117
U 1 1 5C18138F
P 9100 4600
F 0 "#PWR0117" H 9100 4350 50  0001 C CNN
F 1 "GND" V 9105 4472 50  0000 R CNN
F 2 "" H 9100 4600 50  0001 C CNN
F 3 "" H 9100 4600 50  0001 C CNN
	1    9100 4600
	0    -1   -1   0   
$EndComp
$Comp
L power:GND #PWR0118
U 1 1 5C18157D
P 10050 5550
F 0 "#PWR0118" H 10050 5300 50  0001 C CNN
F 1 "GND" H 10055 5377 50  0000 C CNN
F 2 "" H 10050 5550 50  0001 C CNN
F 3 "" H 10050 5550 50  0001 C CNN
	1    10050 5550
	1    0    0    -1  
$EndComp
$Comp
L power:GND #PWR0119
U 1 1 5C18185F
P 7900 3000
F 0 "#PWR0119" H 7900 2750 50  0001 C CNN
F 1 "GND" H 7905 2827 50  0000 C CNN
F 2 "" H 7900 3000 50  0001 C CNN
F 3 "" H 7900 3000 50  0001 C CNN
	1    7900 3000
	1    0    0    -1  
$EndComp
$Comp
L power:GND #PWR0120
U 1 1 5C181950
P 10700 3000
F 0 "#PWR0120" H 10700 2750 50  0001 C CNN
F 1 "GND" H 10705 2827 50  0000 C CNN
F 2 "" H 10700 3000 50  0001 C CNN
F 3 "" H 10700 3000 50  0001 C CNN
	1    10700 3000
	1    0    0    -1  
$EndComp
$Comp
L power:GND #PWR0121
U 1 1 5C181B6C
P 7850 1850
F 0 "#PWR0121" H 7850 1600 50  0001 C CNN
F 1 "GND" H 7855 1677 50  0000 C CNN
F 2 "" H 7850 1850 50  0001 C CNN
F 3 "" H 7850 1850 50  0001 C CNN
	1    7850 1850
	1    0    0    -1  
$EndComp
$Comp
L power:GND #PWR0122
U 1 1 5C181BA5
P 10700 1850
F 0 "#PWR0122" H 10700 1600 50  0001 C CNN
F 1 "GND" H 10705 1677 50  0000 C CNN
F 2 "" H 10700 1850 50  0001 C CNN
F 3 "" H 10700 1850 50  0001 C CNN
	1    10700 1850
	1    0    0    -1  
$EndComp
$Comp
L power:GND #PWR0123
U 1 1 5C181D4E
P 5250 2500
F 0 "#PWR0123" H 5250 2250 50  0001 C CNN
F 1 "GND" H 5255 2327 50  0000 C CNN
F 2 "" H 5250 2500 50  0001 C CNN
F 3 "" H 5250 2500 50  0001 C CNN
	1    5250 2500
	1    0    0    -1  
$EndComp
$Comp
L power:GND #PWR0124
U 1 1 5C181DCC
P 4800 2500
F 0 "#PWR0124" H 4800 2250 50  0001 C CNN
F 1 "GND" H 4805 2327 50  0000 C CNN
F 2 "" H 4800 2500 50  0001 C CNN
F 3 "" H 4800 2500 50  0001 C CNN
	1    4800 2500
	1    0    0    -1  
$EndComp
$Comp
L power:GND #PWR0125
U 1 1 5C181E05
P 4350 2500
F 0 "#PWR0125" H 4350 2250 50  0001 C CNN
F 1 "GND" H 4355 2327 50  0000 C CNN
F 2 "" H 4350 2500 50  0001 C CNN
F 3 "" H 4350 2500 50  0001 C CNN
	1    4350 2500
	1    0    0    -1  
$EndComp
$Comp
L power:GND #PWR0126
U 1 1 5C181E3E
P 3900 2500
F 0 "#PWR0126" H 3900 2250 50  0001 C CNN
F 1 "GND" H 3905 2327 50  0000 C CNN
F 2 "" H 3900 2500 50  0001 C CNN
F 3 "" H 3900 2500 50  0001 C CNN
	1    3900 2500
	1    0    0    -1  
$EndComp
$Comp
L Connector:DB15_Male J2
U 1 1 5C182FAE
P 2250 2050
F 0 "J2" H 2405 2096 50  0000 L CNN
F 1 "DB15_Male" H 2405 2005 50  0000 L CNN
F 2 "" H 2250 2050 50  0001 C CNN
F 3 " ~" H 2250 2050 50  0001 C CNN
	1    2250 2050
	1    0    0    -1  
$EndComp
$Comp
L power:+24V #PWR0127
U 1 1 5C18305C
P 1900 2650
F 0 "#PWR0127" H 1900 2500 50  0001 C CNN
F 1 "+24V" V 1915 2778 50  0000 L CNN
F 2 "" H 1900 2650 50  0001 C CNN
F 3 "" H 1900 2650 50  0001 C CNN
	1    1900 2650
	0    -1   -1   0   
$EndComp
$Comp
L power:GND #PWR0128
U 1 1 5C1830F7
P 1900 2450
F 0 "#PWR0128" H 1900 2200 50  0001 C CNN
F 1 "GND" V 1905 2322 50  0000 R CNN
F 2 "" H 1900 2450 50  0001 C CNN
F 3 "" H 1900 2450 50  0001 C CNN
	1    1900 2450
	0    1    1    0   
$EndComp
Text GLabel 1850 1950 0    50   Output ~ 0
INPUT_1_Micro
Text GLabel 1850 1750 0    50   Output ~ 0
INPUT_2_Micro
Text GLabel 1850 1550 0    50   Output ~ 0
INPUT_3_Micro
Text GLabel 1850 1350 0    50   Output ~ 0
INPUT_4_Micro
Text GLabel 1850 2750 0    50   Output ~ 0
INPUT_1_24v
Text GLabel 1850 2550 0    50   Output ~ 0
INPUT_2_24v
Text GLabel 1850 2350 0    50   Output ~ 0
INPUT_3_24v
Text GLabel 1850 2150 0    50   Output ~ 0
INPUT_4_24v
Wire Wire Line
	1850 2750 1950 2750
Wire Wire Line
	1900 2650 1950 2650
Wire Wire Line
	1850 2550 1950 2550
Wire Wire Line
	1900 2450 1950 2450
Wire Wire Line
	1850 2350 1950 2350
Wire Wire Line
	1850 2150 1950 2150
Wire Wire Line
	1850 1950 1950 1950
Wire Wire Line
	1850 1750 1950 1750
Wire Wire Line
	1850 1550 1950 1550
Wire Wire Line
	1850 1350 1950 1350
$Comp
L LED_PCB-rescue:SML-D13FWT86-SML-D13FWT86 LED1
U 1 1 5BBA4B67
P 10050 5150
F 0 "LED1" V 10396 5022 50  0000 R CNN
F 1 "SML-D13FWT86" V 10305 5022 50  0000 R CNN
F 2 "SML-D13FWT86:SMLD15YWT86" H 10550 5300 50  0001 L BNN
F 3 "http://www.rohm.com/web/global/datasheet/SML-D13FW/sml-d13x-e" H 10550 5200 50  0001 L BNN
F 4 "ROHM SML-D13FWT86, SML 566 nm Green LED, 1608 (0603) Milky White SMD package" H 10550 5100 50  0001 L BNN "Description"
F 5 "" H 10550 5000 50  0001 L BNN "Height"
F 6 "ROHM Semiconductor" H 10550 4900 50  0001 L BNN "Manufacturer_Name"
F 7 "SML-D13FWT86" H 10550 4800 50  0001 L BNN "Manufacturer_Part_Number"
F 8 "1332874P" H 10550 4700 50  0001 L BNN "RS Part Number"
F 9 "http://uk.rs-online.com/web/p/products/1332874P" H 10550 4600 50  0001 L BNN "RS Price/Stock"
F 10 "SML-D13FWT86" H 10550 4500 50  0001 L BNN "Arrow Part Number"
F 11 "http://uk.rs-online.com/web/p/products/1332874P" H 10550 4400 50  0001 L BNN "Arrow Price/Stock"
	1    10050 5150
	0    -1   -1   0   
$EndComp
Wire Wire Line
	5250 5000 5350 5000
Wire Wire Line
	4150 5000 4250 5000
$EndSCHEMATC
