G04 #@! TF.GenerationSoftware,KiCad,Pcbnew,(5.0.0)*
G04 #@! TF.CreationDate,2018-11-20T21:52:31+01:00*
G04 #@! TF.ProjectId,LED_PCB,4C45445F5043422E6B696361645F7063,rev?*
G04 #@! TF.SameCoordinates,Original*
G04 #@! TF.FileFunction,Soldermask,Top*
G04 #@! TF.FilePolarity,Negative*
%FSLAX46Y46*%
G04 Gerber Fmt 4.6, Leading zero omitted, Abs format (unit mm)*
G04 Created by KiCad (PCBNEW (5.0.0)) date 11/20/18 21:52:31*
%MOMM*%
%LPD*%
G01*
G04 APERTURE LIST*
%ADD10C,1.700000*%
%ADD11C,5.200000*%
%ADD12C,6.800000*%
%ADD13R,2.350000X1.050000*%
%ADD14R,1.300000X2.100000*%
%ADD15R,1.925000X1.050000*%
%ADD16R,1.200000X1.200000*%
G04 APERTURE END LIST*
D10*
G04 #@! TO.C,J2*
X93170000Y-57855000D03*
X93170000Y-55115000D03*
X93170000Y-52375000D03*
X93170000Y-49635000D03*
X93170000Y-46895000D03*
X95710000Y-56485000D03*
X95710000Y-53745000D03*
X95710000Y-51005000D03*
X95710000Y-48265000D03*
D11*
X94440000Y-64875000D03*
X94440000Y-39875000D03*
G04 #@! TD*
D12*
G04 #@! TO.C,REF\002A\002A*
X37000000Y-80000000D03*
G04 #@! TD*
G04 #@! TO.C,REF\002A\002A*
X97000000Y-80000000D03*
G04 #@! TD*
G04 #@! TO.C,REF\002A\002A*
X97000000Y-25000000D03*
G04 #@! TD*
D13*
G04 #@! TO.C,T1*
X66776000Y-57110000D03*
X66776000Y-58380000D03*
X66776000Y-59650000D03*
X66776000Y-60920000D03*
X66776000Y-62190000D03*
X66776000Y-63460000D03*
X66776000Y-64730000D03*
X66776000Y-66000000D03*
X66776000Y-67270000D03*
X76226000Y-67270000D03*
X76226000Y-66000000D03*
X76226000Y-64730000D03*
X76226000Y-63460000D03*
X76226000Y-62190000D03*
X76226000Y-60920000D03*
X76226000Y-59650000D03*
X76226000Y-58380000D03*
X76226000Y-57110000D03*
G04 #@! TD*
D14*
G04 #@! TO.C,C3*
X70051000Y-70381500D03*
X72951000Y-70381500D03*
G04 #@! TD*
D10*
G04 #@! TO.C,J1*
X39700000Y-42900000D03*
X39700000Y-45640000D03*
X39700000Y-48380000D03*
X39700000Y-51120000D03*
X39700000Y-53860000D03*
X39700000Y-56600000D03*
X39700000Y-59340000D03*
X39700000Y-62080000D03*
X37160000Y-44270000D03*
X37160000Y-47010000D03*
X37160000Y-49750000D03*
X37160000Y-52490000D03*
X37160000Y-55230000D03*
X37160000Y-57970000D03*
X37160000Y-60710000D03*
D11*
X38430000Y-35840000D03*
X38430000Y-69140000D03*
G04 #@! TD*
D15*
G04 #@! TO.C,IC2*
X58629000Y-43013000D03*
X58629000Y-44283000D03*
X58629000Y-45553000D03*
X58629000Y-46823000D03*
X58629000Y-48093000D03*
X58629000Y-49363000D03*
X58629000Y-50633000D03*
X64053000Y-50633000D03*
X64053000Y-49363000D03*
X64053000Y-48093000D03*
X64053000Y-46823000D03*
X64053000Y-45553000D03*
X64053000Y-44283000D03*
X64053000Y-43013000D03*
G04 #@! TD*
G04 #@! TO.C,IC1*
X54147000Y-33996000D03*
X54147000Y-32726000D03*
X54147000Y-31456000D03*
X54147000Y-30186000D03*
X48723000Y-30186000D03*
X48723000Y-31456000D03*
X48723000Y-32726000D03*
X48723000Y-33996000D03*
G04 #@! TD*
D14*
G04 #@! TO.C,R5*
X50165000Y-48855000D03*
X47265000Y-48855000D03*
G04 #@! TD*
G04 #@! TO.C,C2*
X59891000Y-38314000D03*
X62791000Y-38314000D03*
G04 #@! TD*
G04 #@! TO.C,C4*
X50239000Y-37171000D03*
X53139000Y-37171000D03*
G04 #@! TD*
G04 #@! TO.C,R1*
X50167200Y-41222300D03*
X47267200Y-41222300D03*
G04 #@! TD*
G04 #@! TO.C,R2*
X52197000Y-41222300D03*
X55097000Y-41222300D03*
G04 #@! TD*
G04 #@! TO.C,C1*
X70559000Y-38949000D03*
X73459000Y-38949000D03*
G04 #@! TD*
G04 #@! TO.C,R4*
X52197000Y-45045000D03*
X55097000Y-45045000D03*
G04 #@! TD*
G04 #@! TO.C,R6*
X55094800Y-48855000D03*
X52194800Y-48855000D03*
G04 #@! TD*
G04 #@! TO.C,R8*
X52197000Y-52779300D03*
X55097000Y-52779300D03*
G04 #@! TD*
G04 #@! TO.C,R9*
X80211000Y-64730000D03*
X83111000Y-64730000D03*
G04 #@! TD*
G04 #@! TO.C,R10*
X83111000Y-62190000D03*
X80211000Y-62190000D03*
G04 #@! TD*
G04 #@! TO.C,R11*
X80211000Y-59650000D03*
X83111000Y-59650000D03*
G04 #@! TD*
G04 #@! TO.C,R12*
X83111000Y-57110000D03*
X80211000Y-57110000D03*
G04 #@! TD*
G04 #@! TO.C,R13*
X59743000Y-29297000D03*
X56843000Y-29297000D03*
G04 #@! TD*
G04 #@! TO.C,R3*
X47265000Y-45045000D03*
X50165000Y-45045000D03*
G04 #@! TD*
G04 #@! TO.C,R7*
X50167200Y-52779300D03*
X47267200Y-52779300D03*
G04 #@! TD*
D16*
G04 #@! TO.C,LED1*
X57277000Y-32282000D03*
X57277000Y-33932000D03*
G04 #@! TD*
D15*
G04 #@! TO.C,IC3*
X74721000Y-43013000D03*
X74721000Y-44283000D03*
X74721000Y-45553000D03*
X74721000Y-46823000D03*
X74721000Y-48093000D03*
X74721000Y-49363000D03*
X74721000Y-50633000D03*
X69297000Y-50633000D03*
X69297000Y-49363000D03*
X69297000Y-48093000D03*
X69297000Y-46823000D03*
X69297000Y-45553000D03*
X69297000Y-44283000D03*
X69297000Y-43013000D03*
G04 #@! TD*
D12*
G04 #@! TO.C,REF\002A\002A*
X37000000Y-25000000D03*
G04 #@! TD*
M02*
