G04 #@! TF.GenerationSoftware,KiCad,Pcbnew,(5.0.0)*
G04 #@! TF.CreationDate,2018-11-20T21:53:30+01:00*
G04 #@! TF.ProjectId,LED_PCB,4C45445F5043422E6B696361645F7063,rev?*
G04 #@! TF.SameCoordinates,Original*
G04 #@! TF.FileFunction,Profile,NP*
%FSLAX46Y46*%
G04 Gerber Fmt 4.6, Leading zero omitted, Abs format (unit mm)*
G04 Created by KiCad (PCBNEW (5.0.0)) date 11/20/18 21:53:30*
%MOMM*%
%LPD*%
G01*
G04 APERTURE LIST*
%ADD10C,0.200000*%
G04 APERTURE END LIST*
D10*
X102000000Y-20000000D02*
X32000000Y-20000000D01*
X102000000Y-85000000D02*
X102000000Y-20000000D01*
X32000000Y-85000000D02*
X102000000Y-85000000D01*
X32000000Y-20000000D02*
X32000000Y-85000000D01*
M02*
